{
  "formatVersion": 1,
  "database": {
    "version": 1,
    "identityHash": "fab1cb3a250bea5ea15b81c460aecbf3",
    "entities": [
      {
        "tableName": "data",
        "createSql": "CREATE TABLE IF NOT EXISTS `${TABLE_NAME}` (`id` INTEGER PRIMARY KEY AUTOINCREMENT NOT NULL, `date` TEXT NOT NULL, `sunrise` TEXT NOT NULL, `sunset` TEXT NOT NULL, `day_temp` TEXT NOT NULL, `night_temp` TEXT NOT NULL)",
        "fields": [
          {
            "fieldPath": "id",
            "columnName": "id",
            "affinity": "INTEGER",
            "notNull": true
          },
          {
            "fieldPath": "date",
            "columnName": "date",
            "affinity": "TEXT",
            "notNull": true
          },
          {
            "fieldPath": "sunrise",
            "columnName": "sunrise",
            "affinity": "TEXT",
            "notNull": true
          },
          {
            "fieldPath": "sunset",
            "columnName": "sunset",
            "affinity": "TEXT",
            "notNull": true
          },
          {
            "fieldPath": "dayTemp",
            "columnName": "day_temp",
            "affinity": "TEXT",
            "notNull": true
          },
          {
            "fieldPath": "nightTemp",
            "columnName": "night_temp",
            "affinity": "TEXT",
            "notNull": true
          }
        ],
        "primaryKey": {
          "columnNames": [
            "id"
          ],
          "autoGenerate": true
        },
        "indices": [],
        "foreignKeys": []
      }
    ],
    "views": [],
    "setupQueries": [
      "CREATE TABLE IF NOT EXISTS room_master_table (id INTEGER PRIMARY KEY,identity_hash TEXT)",
      "INSERT OR REPLACE INTO room_master_table (id,identity_hash) VALUES(42, 'fab1cb3a250bea5ea15b81c460aecbf3')"
    ]
  }
}